module github.com/kitech/qt.go

go 1.15

require (
	github.com/Workiva/go-datastructures v1.0.44 // indirect
	github.com/bitly/go-simplejson v0.5.0
	github.com/bmizerany/assert v0.0.0-20160611221934-b7ed37b82869 // indirect
	github.com/cheekybits/genny v0.0.0-20170328200008-9127e812e1e9 // indirect
	github.com/clbanning/mxj v1.6.1
	github.com/emirpasic/gods v1.9.0
	github.com/gammazero/deque v0.0.0-20201010052221-3932da5530cc
	github.com/gonuts/dl v0.0.0-20160302100715-9a2e942d3477 // indirect
	github.com/huandu/xstrings v1.0.0 // indirect
	github.com/ianlancetaylor/demangle v0.0.0-20200824232613-28f6c0f3b639
	github.com/kitech/dl v0.0.0-20201213035930-57687ffb7a48
	github.com/kitech/goplusplus v0.0.0-20171220130708-3b7427a37be0
	github.com/kr/pretty v0.1.0 // indirect
	github.com/lytics/base62 v0.0.0-20180122174218-827c93e361de // indirect
	github.com/petermattis/goid v0.0.0-20180202154549-b0b1615b78e5 // indirect
	github.com/pkg/errors v0.8.0 // indirect
	github.com/sasha-s/go-deadlock v0.2.0 // indirect
	github.com/thoas/go-funk v0.0.0-20170604141201-14304e8530de
)
